{
	"_id": "12578",
	"userId": "26418",
	"courseId": "78106",
	"isPaid": true,
	"paymentMethod": "Paypal"
}

{
	"_id": "56371",
	"userId": "26418",
	"courseId": "25638",
	"isPaid": true,
	"paymentMethod": "AMEX - Credit"
}


